Analysis & Synthesis report for HexClock
Mon May 14 20:36:31 2018
Quartus II 64-Bit Version 14.1.0 Build 186 12/03/2014 SJ Web Edition


---------------------
; Table of Contents ;
---------------------
  1. Legal Notice
  2. Analysis & Synthesis Summary
  3. Analysis & Synthesis Settings
  4. Parallel Compilation
  5. Analysis & Synthesis Source Files Read
  6. Analysis & Synthesis Resource Usage Summary
  7. Analysis & Synthesis Resource Utilization by Entity
  8. User-Specified and Inferred Latches
  9. General Register Statistics
 10. Parameter Settings for User Entity Instance: Top-level Entity: |HexClock
 11. Parameter Settings for User Entity Instance: ClockDivider:MCLK
 12. Parameter Settings for User Entity Instance: ClockDivider:MCLK|Counter:Count
 13. Parameter Settings for User Entity Instance: Counter:MCOUNT
 14. Port Connectivity Checks: "Segmentdisplay:DAT3"
 15. Port Connectivity Checks: "Segmentdisplay:DAT2"
 16. Port Connectivity Checks: "Segmentdisplay:DAT1"
 17. Port Connectivity Checks: "Segmentdisplay:DAT0"
 18. Port Connectivity Checks: "ClockDivider:MCLK|DFlipFlop:Buff"
 19. Post-Synthesis Netlist Statistics for Top Partition
 20. Elapsed Time Per Partition
 21. Analysis & Synthesis Messages



----------------
; Legal Notice ;
----------------
Copyright (C) 1991-2014 Altera Corporation. All rights reserved.
Your use of Altera Corporation's design tools, logic functions 
and other software and tools, and its AMPP partner logic 
functions, and any output files from any of the foregoing 
(including device programming or simulation files), and any 
associated documentation or information are expressly subject 
to the terms and conditions of the Altera Program License 
Subscription Agreement, the Altera Quartus II License Agreement,
the Altera MegaCore Function License Agreement, or other 
applicable license agreement, including, without limitation, 
that your use is for the sole purpose of programming logic 
devices manufactured by Altera and sold by Altera or its 
authorized distributors.  Please refer to the applicable 
agreement for further details.



+---------------------------------------------------------------------------------+
; Analysis & Synthesis Summary                                                    ;
+------------------------------------+--------------------------------------------+
; Analysis & Synthesis Status        ; Successful - Mon May 14 20:36:31 2018      ;
; Quartus II 64-Bit Version          ; 14.1.0 Build 186 12/03/2014 SJ Web Edition ;
; Revision Name                      ; HexClock                                   ;
; Top-level Entity Name              ; HexClock                                   ;
; Family                             ; Cyclone IV E                               ;
; Total logic elements               ; 164                                        ;
;     Total combinational functions  ; 164                                        ;
;     Dedicated logic registers      ; 46                                         ;
; Total registers                    ; 46                                         ;
; Total pins                         ; 31                                         ;
; Total virtual pins                 ; 0                                          ;
; Total memory bits                  ; 0                                          ;
; Embedded Multiplier 9-bit elements ; 0                                          ;
; Total PLLs                         ; 0                                          ;
+------------------------------------+--------------------------------------------+


+----------------------------------------------------------------------------------------------------------------------+
; Analysis & Synthesis Settings                                                                                        ;
+----------------------------------------------------------------------------+--------------------+--------------------+
; Option                                                                     ; Setting            ; Default Value      ;
+----------------------------------------------------------------------------+--------------------+--------------------+
; Device                                                                     ; EP4CE115F29C7      ;                    ;
; Top-level entity name                                                      ; HexClock           ; HexClock           ;
; Family name                                                                ; Cyclone IV E       ; Cyclone IV GX      ;
; Use smart compilation                                                      ; Off                ; Off                ;
; Enable parallel Assembler and TimeQuest Timing Analyzer during compilation ; On                 ; On                 ;
; Enable compact report table                                                ; Off                ; Off                ;
; Restructure Multiplexers                                                   ; Auto               ; Auto               ;
; Create Debugging Nodes for IP Cores                                        ; Off                ; Off                ;
; Preserve fewer node names                                                  ; On                 ; On                 ;
; Disable OpenCore Plus hardware evaluation                                  ; Off                ; Off                ;
; Verilog Version                                                            ; Verilog_2001       ; Verilog_2001       ;
; VHDL Version                                                               ; VHDL_1993          ; VHDL_1993          ;
; State Machine Processing                                                   ; Auto               ; Auto               ;
; Safe State Machine                                                         ; Off                ; Off                ;
; Extract Verilog State Machines                                             ; On                 ; On                 ;
; Extract VHDL State Machines                                                ; On                 ; On                 ;
; Ignore Verilog initial constructs                                          ; Off                ; Off                ;
; Iteration limit for constant Verilog loops                                 ; 5000               ; 5000               ;
; Iteration limit for non-constant Verilog loops                             ; 250                ; 250                ;
; Add Pass-Through Logic to Inferred RAMs                                    ; On                 ; On                 ;
; Infer RAMs from Raw Logic                                                  ; On                 ; On                 ;
; Parallel Synthesis                                                         ; On                 ; On                 ;
; DSP Block Balancing                                                        ; Auto               ; Auto               ;
; NOT Gate Push-Back                                                         ; On                 ; On                 ;
; Power-Up Don't Care                                                        ; On                 ; On                 ;
; Remove Redundant Logic Cells                                               ; Off                ; Off                ;
; Remove Duplicate Registers                                                 ; On                 ; On                 ;
; Ignore CARRY Buffers                                                       ; Off                ; Off                ;
; Ignore CASCADE Buffers                                                     ; Off                ; Off                ;
; Ignore GLOBAL Buffers                                                      ; Off                ; Off                ;
; Ignore ROW GLOBAL Buffers                                                  ; Off                ; Off                ;
; Ignore LCELL Buffers                                                       ; Off                ; Off                ;
; Ignore SOFT Buffers                                                        ; On                 ; On                 ;
; Limit AHDL Integers to 32 Bits                                             ; Off                ; Off                ;
; Optimization Technique                                                     ; Balanced           ; Balanced           ;
; Carry Chain Length                                                         ; 70                 ; 70                 ;
; Auto Carry Chains                                                          ; On                 ; On                 ;
; Auto Open-Drain Pins                                                       ; On                 ; On                 ;
; Perform WYSIWYG Primitive Resynthesis                                      ; Off                ; Off                ;
; Auto ROM Replacement                                                       ; On                 ; On                 ;
; Auto RAM Replacement                                                       ; On                 ; On                 ;
; Auto DSP Block Replacement                                                 ; On                 ; On                 ;
; Auto Shift Register Replacement                                            ; Auto               ; Auto               ;
; Allow Shift Register Merging across Hierarchies                            ; Auto               ; Auto               ;
; Auto Clock Enable Replacement                                              ; On                 ; On                 ;
; Strict RAM Replacement                                                     ; Off                ; Off                ;
; Allow Synchronous Control Signals                                          ; On                 ; On                 ;
; Force Use of Synchronous Clear Signals                                     ; Off                ; Off                ;
; Auto RAM Block Balancing                                                   ; On                 ; On                 ;
; Auto RAM to Logic Cell Conversion                                          ; Off                ; Off                ;
; Auto Resource Sharing                                                      ; Off                ; Off                ;
; Allow Any RAM Size For Recognition                                         ; Off                ; Off                ;
; Allow Any ROM Size For Recognition                                         ; Off                ; Off                ;
; Allow Any Shift Register Size For Recognition                              ; Off                ; Off                ;
; Use LogicLock Constraints during Resource Balancing                        ; On                 ; On                 ;
; Ignore translate_off and synthesis_off directives                          ; Off                ; Off                ;
; Timing-Driven Synthesis                                                    ; On                 ; On                 ;
; Report Parameter Settings                                                  ; On                 ; On                 ;
; Report Source Assignments                                                  ; On                 ; On                 ;
; Report Connectivity Checks                                                 ; On                 ; On                 ;
; Ignore Maximum Fan-Out Assignments                                         ; Off                ; Off                ;
; Synchronization Register Chain Length                                      ; 2                  ; 2                  ;
; PowerPlay Power Optimization During Synthesis                              ; Normal compilation ; Normal compilation ;
; HDL message level                                                          ; Level2             ; Level2             ;
; Suppress Register Optimization Related Messages                            ; Off                ; Off                ;
; Number of Removed Registers Reported in Synthesis Report                   ; 5000               ; 5000               ;
; Number of Swept Nodes Reported in Synthesis Report                         ; 5000               ; 5000               ;
; Number of Inverted Registers Reported in Synthesis Report                  ; 100                ; 100                ;
; Clock MUX Protection                                                       ; On                 ; On                 ;
; Auto Gated Clock Conversion                                                ; Off                ; Off                ;
; Block Design Naming                                                        ; Auto               ; Auto               ;
; SDC constraint protection                                                  ; Off                ; Off                ;
; Synthesis Effort                                                           ; Auto               ; Auto               ;
; Shift Register Replacement - Allow Asynchronous Clear Signal               ; On                 ; On                 ;
; Pre-Mapping Resynthesis Optimization                                       ; Off                ; Off                ;
; Analysis & Synthesis Message Level                                         ; Medium             ; Medium             ;
; Disable Register Merging Across Hierarchies                                ; Auto               ; Auto               ;
; Resource Aware Inference For Block RAM                                     ; On                 ; On                 ;
; Synthesis Seed                                                             ; 1                  ; 1                  ;
+----------------------------------------------------------------------------+--------------------+--------------------+


+------------------------------------------+
; Parallel Compilation                     ;
+----------------------------+-------------+
; Processors                 ; Number      ;
+----------------------------+-------------+
; Number detected on machine ; 16          ;
; Maximum allowed            ; 16          ;
;                            ;             ;
; Average used               ; 1.00        ;
; Maximum used               ; 7           ;
;                            ;             ;
; Usage by Processor         ; % Time Used ;
;     Processor 1            ; 100.0%      ;
;     Processors 2-7         ; < 0.1%      ;
;     Processors 8-16        ;   0.0%      ;
+----------------------------+-------------+


+------------------------------------------------------------------------------------------------------------------------------------------------------------------------------------+
; Analysis & Synthesis Source Files Read                                                                                                                                             ;
+---------------------------------------------------+-----------------+-----------------+----------------------------------------------------------------------------------+---------+
; File Name with User-Entered Path                  ; Used in Netlist ; File Type       ; File Name with Absolute Path                                                     ; Library ;
+---------------------------------------------------+-----------------+-----------------+----------------------------------------------------------------------------------+---------+
; ../../Basiskomponenten/FF/DFlipFlop/DFlipFlop.vhd ; yes             ; User VHDL File  ; G:/workbench/Altera/projects/Uni_EDA/Basiskomponenten/FF/DFlipFlop/DFlipFlop.vhd ;         ;
; ../../Counter/Counter.vhd                         ; yes             ; User VHDL File  ; G:/workbench/Altera/projects/Uni_EDA/Counter/Counter.vhd                         ;         ;
; ../../Display/Segmentdisplay/Segmentdisplay.vhd   ; yes             ; User VHDL File  ; G:/workbench/Altera/projects/Uni_EDA/Display/Segmentdisplay/Segmentdisplay.vhd   ;         ;
; ../ClockDivider/ClockDivider.vhd                  ; yes             ; User VHDL File  ; G:/workbench/Altera/projects/Uni_EDA/Clock/ClockDivider/ClockDivider.vhd         ;         ;
; HexClock.vhd                                      ; yes             ; User VHDL File  ; G:/workbench/Altera/projects/Uni_EDA/Clock/HexClock/HexClock.vhd                 ;         ;
+---------------------------------------------------+-----------------+-----------------+----------------------------------------------------------------------------------+---------+


+----------------------------------------------------------+
; Analysis & Synthesis Resource Usage Summary              ;
+---------------------------------------------+------------+
; Resource                                    ; Usage      ;
+---------------------------------------------+------------+
; Estimated Total logic elements              ; 164        ;
;                                             ;            ;
; Total combinational functions               ; 164        ;
; Logic element usage by number of LUT inputs ;            ;
;     -- 4 input functions                    ; 45         ;
;     -- 3 input functions                    ; 33         ;
;     -- <=2 input functions                  ; 86         ;
;                                             ;            ;
; Logic elements by mode                      ;            ;
;     -- normal mode                          ; 126        ;
;     -- arithmetic mode                      ; 38         ;
;                                             ;            ;
; Total registers                             ; 46         ;
;     -- Dedicated logic registers            ; 46         ;
;     -- I/O registers                        ; 0          ;
;                                             ;            ;
; I/O pins                                    ; 31         ;
;                                             ;            ;
; Embedded Multiplier 9-bit elements          ; 0          ;
;                                             ;            ;
; Maximum fan-out node                        ; nRST~input ;
; Maximum fan-out                             ; 48         ;
; Total fan-out                               ; 647        ;
; Average fan-out                             ; 2.38       ;
+---------------------------------------------+------------+


+----------------------------------------------------------------------------------------------------------------------------------------------------------------------------------------------------+
; Analysis & Synthesis Resource Utilization by Entity                                                                                                                                                ;
+----------------------------+-------------------+--------------+-------------+--------------+---------+-----------+------+--------------+--------------------------------------------+--------------+
; Compilation Hierarchy Node ; LC Combinationals ; LC Registers ; Memory Bits ; DSP Elements ; DSP 9x9 ; DSP 18x18 ; Pins ; Virtual Pins ; Full Hierarchy Name                        ; Library Name ;
+----------------------------+-------------------+--------------+-------------+--------------+---------+-----------+------+--------------+--------------------------------------------+--------------+
; |HexClock                  ; 164 (1)           ; 46 (0)       ; 0           ; 0            ; 0       ; 0         ; 31   ; 0            ; |HexClock                                  ; work         ;
;    |ClockDivider:MCLK|     ; 70 (10)           ; 29 (1)       ; 0           ; 0            ; 0       ; 0         ; 0    ; 0            ; |HexClock|ClockDivider:MCLK                ; work         ;
;       |Counter:Count|      ; 57 (57)           ; 27 (27)      ; 0           ; 0            ; 0       ; 0         ; 0    ; 0            ; |HexClock|ClockDivider:MCLK|Counter:Count  ; work         ;
;       |DFlipFlop:Buff|     ; 3 (3)             ; 1 (1)        ; 0           ; 0            ; 0       ; 0         ; 0    ; 0            ; |HexClock|ClockDivider:MCLK|DFlipFlop:Buff ; work         ;
;    |Counter:MCOUNT|        ; 37 (37)           ; 17 (17)      ; 0           ; 0            ; 0       ; 0         ; 0    ; 0            ; |HexClock|Counter:MCOUNT                   ; work         ;
;    |Segmentdisplay:DAT0|   ; 14 (14)           ; 0 (0)        ; 0           ; 0            ; 0       ; 0         ; 0    ; 0            ; |HexClock|Segmentdisplay:DAT0              ; work         ;
;    |Segmentdisplay:DAT1|   ; 14 (14)           ; 0 (0)        ; 0           ; 0            ; 0       ; 0         ; 0    ; 0            ; |HexClock|Segmentdisplay:DAT1              ; work         ;
;    |Segmentdisplay:DAT2|   ; 14 (14)           ; 0 (0)        ; 0           ; 0            ; 0       ; 0         ; 0    ; 0            ; |HexClock|Segmentdisplay:DAT2              ; work         ;
;    |Segmentdisplay:DAT3|   ; 14 (14)           ; 0 (0)        ; 0           ; 0            ; 0       ; 0         ; 0    ; 0            ; |HexClock|Segmentdisplay:DAT3              ; work         ;
+----------------------------+-------------------+--------------+-------------+--------------+---------+-----------+------+--------------+--------------------------------------------+--------------+
Note: For table entries with two numbers listed, the numbers in parentheses indicate the number of resources of the given type used by the specific entity alone. The numbers listed outside of parentheses indicate the total resources of the given type used by the specific entity and all of its sub-entities in the hierarchy.


+------------------------------------------------------------------------------------------------------+
; User-Specified and Inferred Latches                                                                  ;
+----------------------------------------------------+------------------------+------------------------+
; Latch Name                                         ; Latch Enable Signal    ; Free of Timing Hazards ;
+----------------------------------------------------+------------------------+------------------------+
; ClockDivider:MCLK|DFlipFlop:Buff|s_q               ; ClockDivider:MCLK|s_qe ; yes                    ;
; Number of user-specified and inferred latches = 1  ;                        ;                        ;
+----------------------------------------------------+------------------------+------------------------+
Note: All latches listed above may not be present at the end of synthesis due to various synthesis optimizations.


+------------------------------------------------------+
; General Register Statistics                          ;
+----------------------------------------------+-------+
; Statistic                                    ; Value ;
+----------------------------------------------+-------+
; Total registers                              ; 46    ;
; Number of registers using Synchronous Clear  ; 0     ;
; Number of registers using Synchronous Load   ; 0     ;
; Number of registers using Asynchronous Clear ; 46    ;
; Number of registers using Asynchronous Load  ; 0     ;
; Number of registers using Clock Enable       ; 0     ;
; Number of registers using Preset             ; 0     ;
+----------------------------------------------+-------+


+--------------------------------------------------------------------------+
; Parameter Settings for User Entity Instance: Top-level Entity: |HexClock ;
+----------------+----------+----------------------------------------------+
; Parameter Name ; Value    ; Type                                         ;
+----------------+----------+----------------------------------------------+
; Clock_Freq     ; 50000000 ; Signed Integer                               ;
+----------------+----------+----------------------------------------------+
Note: In order to hide this table in the UI and the text report file, please set the "Show Parameter Settings in Synthesis Report" option in "Analysis and Synthesis Settings -> More Settings" to "Off".


+----------------------------------------------------------------+
; Parameter Settings for User Entity Instance: ClockDivider:MCLK ;
+----------------+----------+------------------------------------+
; Parameter Name ; Value    ; Type                               ;
+----------------+----------+------------------------------------+
; memlimit       ; 50000001 ; Signed Integer                     ;
; cycles         ; 25000000 ; Signed Integer                     ;
+----------------+----------+------------------------------------+
Note: In order to hide this table in the UI and the text report file, please set the "Show Parameter Settings in Synthesis Report" option in "Analysis and Synthesis Settings -> More Settings" to "Off".


+------------------------------------------------------------------------------+
; Parameter Settings for User Entity Instance: ClockDivider:MCLK|Counter:Count ;
+----------------+----------+--------------------------------------------------+
; Parameter Name ; Value    ; Type                                             ;
+----------------+----------+--------------------------------------------------+
; limit          ; 50000001 ; Signed Integer                                   ;
+----------------+----------+--------------------------------------------------+
Note: In order to hide this table in the UI and the text report file, please set the "Show Parameter Settings in Synthesis Report" option in "Analysis and Synthesis Settings -> More Settings" to "Off".


+-------------------------------------------------------------+
; Parameter Settings for User Entity Instance: Counter:MCOUNT ;
+----------------+-------+------------------------------------+
; Parameter Name ; Value ; Type                               ;
+----------------+-------+------------------------------------+
; limit          ; 65535 ; Signed Integer                     ;
+----------------+-------+------------------------------------+
Note: In order to hide this table in the UI and the text report file, please set the "Show Parameter Settings in Synthesis Report" option in "Analysis and Synthesis Settings -> More Settings" to "Off".


+-------------------------------------------------+
; Port Connectivity Checks: "Segmentdisplay:DAT3" ;
+------+-------+----------+-----------------------+
; Port ; Type  ; Severity ; Details               ;
+------+-------+----------+-----------------------+
; hb   ; Input ; Info     ; Stuck at GND          ;
+------+-------+----------+-----------------------+


+-------------------------------------------------+
; Port Connectivity Checks: "Segmentdisplay:DAT2" ;
+------+-------+----------+-----------------------+
; Port ; Type  ; Severity ; Details               ;
+------+-------+----------+-----------------------+
; hb   ; Input ; Info     ; Stuck at GND          ;
+------+-------+----------+-----------------------+


+-------------------------------------------------+
; Port Connectivity Checks: "Segmentdisplay:DAT1" ;
+------+-------+----------+-----------------------+
; Port ; Type  ; Severity ; Details               ;
+------+-------+----------+-----------------------+
; hb   ; Input ; Info     ; Stuck at GND          ;
+------+-------+----------+-----------------------+


+-------------------------------------------------+
; Port Connectivity Checks: "Segmentdisplay:DAT0" ;
+------+-------+----------+-----------------------+
; Port ; Type  ; Severity ; Details               ;
+------+-------+----------+-----------------------+
; hb   ; Input ; Info     ; Stuck at GND          ;
+------+-------+----------+-----------------------+


+----------------------------------------------------------------------------------------------------------------+
; Port Connectivity Checks: "ClockDivider:MCLK|DFlipFlop:Buff"                                                   ;
+------+--------+----------+-------------------------------------------------------------------------------------+
; Port ; Type   ; Severity ; Details                                                                             ;
+------+--------+----------+-------------------------------------------------------------------------------------+
; nq   ; Output ; Info     ; Connected to dangling logic. Logic that only feeds a dangling port will be removed. ;
+------+--------+----------+-------------------------------------------------------------------------------------+


+-----------------------------------------------------+
; Post-Synthesis Netlist Statistics for Top Partition ;
+-----------------------+-----------------------------+
; Type                  ; Count                       ;
+-----------------------+-----------------------------+
; boundary_port         ; 31                          ;
; cycloneiii_ff         ; 46                          ;
;     CLR               ; 46                          ;
; cycloneiii_lcell_comb ; 164                         ;
;     arith             ; 38                          ;
;         2 data inputs ; 36                          ;
;         3 data inputs ; 2                           ;
;     normal            ; 126                         ;
;         1 data inputs ; 2                           ;
;         2 data inputs ; 48                          ;
;         3 data inputs ; 31                          ;
;         4 data inputs ; 45                          ;
;                       ;                             ;
; Max LUT depth         ; 4.40                        ;
; Average LUT depth     ; 3.06                        ;
+-----------------------+-----------------------------+


+-------------------------------+
; Elapsed Time Per Partition    ;
+----------------+--------------+
; Partition Name ; Elapsed Time ;
+----------------+--------------+
; Top            ; 00:00:00     ;
+----------------+--------------+


+-------------------------------+
; Analysis & Synthesis Messages ;
+-------------------------------+
Info: *******************************************************************
Info: Running Quartus II 64-Bit Analysis & Synthesis
    Info: Version 14.1.0 Build 186 12/03/2014 SJ Web Edition
    Info: Processing started: Mon May 14 20:36:19 2018
Info: Command: quartus_map --read_settings_files=on --write_settings_files=off HexClock -c HexClock
Info (20030): Parallel compilation is enabled and will use 16 of the 16 processors detected
Info (12021): Found 2 design units, including 1 entities, in source file /workbench/altera/projects/uni_eda/basiskomponenten/ff/dflipflop/dflipflop.vhd
    Info (12022): Found design unit 1: DFlipFlop-Behaviour
    Info (12023): Found entity 1: DFlipFlop
Info (12021): Found 2 design units, including 1 entities, in source file /workbench/altera/projects/uni_eda/counter/counter.vhd
    Info (12022): Found design unit 1: Counter-Behaviour
    Info (12023): Found entity 1: Counter
Info (12021): Found 2 design units, including 1 entities, in source file /workbench/altera/projects/uni_eda/display/segmentdisplay/segmentdisplay.vhd
    Info (12022): Found design unit 1: Segmentdisplay-Behaviour
    Info (12023): Found entity 1: Segmentdisplay
Info (12021): Found 2 design units, including 1 entities, in source file /workbench/altera/projects/uni_eda/clock/clockdivider/clockdivider.vhd
    Info (12022): Found design unit 1: ClockDivider-Behaviour
    Info (12023): Found entity 1: ClockDivider
Info (12021): Found 2 design units, including 1 entities, in source file hexclock.vhd
    Info (12022): Found design unit 1: HexClock-Behaviour
    Info (12023): Found entity 1: HexClock
Info (12021): Found 2 design units, including 1 entities, in source file tb_hexclock.vhd
    Info (12022): Found design unit 1: tb_HexClock-Testbench
    Info (12023): Found entity 1: tb_HexClock
Info (12127): Elaborating entity "HexClock" for the top level hierarchy
Info (12128): Elaborating entity "ClockDivider" for hierarchy "ClockDivider:MCLK"
Info (12128): Elaborating entity "Counter" for hierarchy "ClockDivider:MCLK|Counter:Count"
Info (12128): Elaborating entity "DFlipFlop" for hierarchy "ClockDivider:MCLK|DFlipFlop:Buff"
Warning (10631): VHDL Process Statement warning at DFlipFlop.vhd(17): inferring latch(es) for signal or variable "s_q", which holds its previous value in one or more paths through the process
Info (10041): Inferred latch for "s_q" at DFlipFlop.vhd(17)
Info (12128): Elaborating entity "Segmentdisplay" for hierarchy "Segmentdisplay:DAT0"
Info (12128): Elaborating entity "Counter" for hierarchy "Counter:MCOUNT"
Info (286030): Timing-Driven Synthesis is running
Info (16010): Generating hard_block partition "hard_block:auto_generated_inst"
    Info (16011): Adding 0 node(s), including 0 DDIO, 0 PLL, 0 transceiver and 0 LCELL
Info (21057): Implemented 195 device resources after synthesis - the final resource count might be different
    Info (21058): Implemented 2 input pins
    Info (21059): Implemented 29 output pins
    Info (21061): Implemented 164 logic cells
Info: Quartus II 64-Bit Analysis & Synthesis was successful. 0 errors, 1 warning
    Info: Peak virtual memory: 793 megabytes
    Info: Processing ended: Mon May 14 20:36:31 2018
    Info: Elapsed time: 00:00:12
    Info: Total CPU time (on all processors): 00:00:28


