
State Machine - |LCDDisplayGame|LCDDisplayController:LCD|\Init:state
Name \Init:state.SetLine1 \Init:state.SetLine0 \Init:state.Reset \Init:state.Ready \Init:state.Entry \Init:state.Disp \Init:state.Func 
\Init:state.Func 0 0 0 0 0 0 0 
\Init:state.Disp 0 0 0 0 0 1 1 
\Init:state.Entry 0 0 0 0 1 0 1 
\Init:state.Ready 0 0 0 1 0 0 1 
\Init:state.Reset 0 0 1 0 0 0 1 
\Init:state.SetLine0 0 1 0 0 0 0 1 
\Init:state.SetLine1 1 0 0 0 0 0 1 
