Analysis & Synthesis report for Multiplikator
Mon Jul 16 14:59:18 2018
Quartus II 64-Bit Version 14.1.0 Build 186 12/03/2014 SJ Web Edition


---------------------
; Table of Contents ;
---------------------
  1. Legal Notice
  2. Analysis & Synthesis Summary
  3. Analysis & Synthesis Settings
  4. Parallel Compilation
  5. Analysis & Synthesis Source Files Read
  6. Analysis & Synthesis Resource Usage Summary
  7. Analysis & Synthesis Resource Utilization by Entity
  8. State Machine - |Multiplikator|s_state_current
  9. User-Specified and Inferred Latches
 10. Registers Removed During Synthesis
 11. General Register Statistics
 12. Multiplexer Restructuring Statistics (Restructuring Performed)
 13. Parameter Settings for User Entity Instance: Top-level Entity: |Multiplikator
 14. Parameter Settings for User Entity Instance: Counter:CNT
 15. Parameter Settings for User Entity Instance: RegisterU4:REG_A
 16. Port Connectivity Checks: "RegisterU4:REG_A|DFlipFlop:\REG_GEN:9:FF"
 17. Port Connectivity Checks: "RegisterU4:REG_A|DFlipFlop:\REG_GEN:8:FF"
 18. Port Connectivity Checks: "RegisterU4:REG_A|DFlipFlop:\REG_GEN:7:FF"
 19. Port Connectivity Checks: "RegisterU4:REG_A|DFlipFlop:\REG_GEN:6:FF"
 20. Port Connectivity Checks: "RegisterU4:REG_A|DFlipFlop:\REG_GEN:5:FF"
 21. Port Connectivity Checks: "RegisterU4:REG_A|DFlipFlop:\REG_GEN:4:FF"
 22. Port Connectivity Checks: "RegisterU4:REG_A|DFlipFlop:\REG_GEN:3:FF"
 23. Port Connectivity Checks: "RegisterU4:REG_A|DFlipFlop:\REG_GEN:2:FF"
 24. Port Connectivity Checks: "RegisterU4:REG_A|DFlipFlop:\REG_GEN:1:FF"
 25. Port Connectivity Checks: "RegisterU4:REG_A"
 26. Port Connectivity Checks: "Counter:CNT"
 27. Post-Synthesis Netlist Statistics for Top Partition
 28. Elapsed Time Per Partition
 29. Analysis & Synthesis Messages



----------------
; Legal Notice ;
----------------
Copyright (C) 1991-2014 Altera Corporation. All rights reserved.
Your use of Altera Corporation's design tools, logic functions 
and other software and tools, and its AMPP partner logic 
functions, and any output files from any of the foregoing 
(including device programming or simulation files), and any 
associated documentation or information are expressly subject 
to the terms and conditions of the Altera Program License 
Subscription Agreement, the Altera Quartus II License Agreement,
the Altera MegaCore Function License Agreement, or other 
applicable license agreement, including, without limitation, 
that your use is for the sole purpose of programming logic 
devices manufactured by Altera and sold by Altera or its 
authorized distributors.  Please refer to the applicable 
agreement for further details.



+---------------------------------------------------------------------------------+
; Analysis & Synthesis Summary                                                    ;
+------------------------------------+--------------------------------------------+
; Analysis & Synthesis Status        ; Successful - Mon Jul 16 14:59:18 2018      ;
; Quartus II 64-Bit Version          ; 14.1.0 Build 186 12/03/2014 SJ Web Edition ;
; Revision Name                      ; Multiplikator                              ;
; Top-level Entity Name              ; Multiplikator                              ;
; Family                             ; Cyclone IV E                               ;
; Total logic elements               ; 57                                         ;
;     Total combinational functions  ; 55                                         ;
;     Dedicated logic registers      ; 7                                          ;
; Total registers                    ; 7                                          ;
; Total pins                         ; 23                                         ;
; Total virtual pins                 ; 0                                          ;
; Total memory bits                  ; 0                                          ;
; Embedded Multiplier 9-bit elements ; 0                                          ;
; Total PLLs                         ; 0                                          ;
+------------------------------------+--------------------------------------------+


+----------------------------------------------------------------------------------------------------------------------+
; Analysis & Synthesis Settings                                                                                        ;
+----------------------------------------------------------------------------+--------------------+--------------------+
; Option                                                                     ; Setting            ; Default Value      ;
+----------------------------------------------------------------------------+--------------------+--------------------+
; Device                                                                     ; EP4CE115F29C7      ;                    ;
; Top-level entity name                                                      ; Multiplikator      ; Multiplikator      ;
; Family name                                                                ; Cyclone IV E       ; Cyclone IV GX      ;
; Use smart compilation                                                      ; Off                ; Off                ;
; Enable parallel Assembler and TimeQuest Timing Analyzer during compilation ; On                 ; On                 ;
; Enable compact report table                                                ; Off                ; Off                ;
; Restructure Multiplexers                                                   ; Auto               ; Auto               ;
; Create Debugging Nodes for IP Cores                                        ; Off                ; Off                ;
; Preserve fewer node names                                                  ; On                 ; On                 ;
; Disable OpenCore Plus hardware evaluation                                  ; Off                ; Off                ;
; Verilog Version                                                            ; Verilog_2001       ; Verilog_2001       ;
; VHDL Version                                                               ; VHDL_1993          ; VHDL_1993          ;
; State Machine Processing                                                   ; Auto               ; Auto               ;
; Safe State Machine                                                         ; Off                ; Off                ;
; Extract Verilog State Machines                                             ; On                 ; On                 ;
; Extract VHDL State Machines                                                ; On                 ; On                 ;
; Ignore Verilog initial constructs                                          ; Off                ; Off                ;
; Iteration limit for constant Verilog loops                                 ; 5000               ; 5000               ;
; Iteration limit for non-constant Verilog loops                             ; 250                ; 250                ;
; Add Pass-Through Logic to Inferred RAMs                                    ; On                 ; On                 ;
; Infer RAMs from Raw Logic                                                  ; On                 ; On                 ;
; Parallel Synthesis                                                         ; On                 ; On                 ;
; DSP Block Balancing                                                        ; Auto               ; Auto               ;
; NOT Gate Push-Back                                                         ; On                 ; On                 ;
; Power-Up Don't Care                                                        ; On                 ; On                 ;
; Remove Redundant Logic Cells                                               ; Off                ; Off                ;
; Remove Duplicate Registers                                                 ; On                 ; On                 ;
; Ignore CARRY Buffers                                                       ; Off                ; Off                ;
; Ignore CASCADE Buffers                                                     ; Off                ; Off                ;
; Ignore GLOBAL Buffers                                                      ; Off                ; Off                ;
; Ignore ROW GLOBAL Buffers                                                  ; Off                ; Off                ;
; Ignore LCELL Buffers                                                       ; Off                ; Off                ;
; Ignore SOFT Buffers                                                        ; On                 ; On                 ;
; Limit AHDL Integers to 32 Bits                                             ; Off                ; Off                ;
; Optimization Technique                                                     ; Balanced           ; Balanced           ;
; Carry Chain Length                                                         ; 70                 ; 70                 ;
; Auto Carry Chains                                                          ; On                 ; On                 ;
; Auto Open-Drain Pins                                                       ; On                 ; On                 ;
; Perform WYSIWYG Primitive Resynthesis                                      ; Off                ; Off                ;
; Auto ROM Replacement                                                       ; On                 ; On                 ;
; Auto RAM Replacement                                                       ; On                 ; On                 ;
; Auto DSP Block Replacement                                                 ; On                 ; On                 ;
; Auto Shift Register Replacement                                            ; Auto               ; Auto               ;
; Allow Shift Register Merging across Hierarchies                            ; Auto               ; Auto               ;
; Auto Clock Enable Replacement                                              ; On                 ; On                 ;
; Strict RAM Replacement                                                     ; Off                ; Off                ;
; Allow Synchronous Control Signals                                          ; On                 ; On                 ;
; Force Use of Synchronous Clear Signals                                     ; Off                ; Off                ;
; Auto RAM Block Balancing                                                   ; On                 ; On                 ;
; Auto RAM to Logic Cell Conversion                                          ; Off                ; Off                ;
; Auto Resource Sharing                                                      ; Off                ; Off                ;
; Allow Any RAM Size For Recognition                                         ; Off                ; Off                ;
; Allow Any ROM Size For Recognition                                         ; Off                ; Off                ;
; Allow Any Shift Register Size For Recognition                              ; Off                ; Off                ;
; Use LogicLock Constraints during Resource Balancing                        ; On                 ; On                 ;
; Ignore translate_off and synthesis_off directives                          ; Off                ; Off                ;
; Timing-Driven Synthesis                                                    ; On                 ; On                 ;
; Report Parameter Settings                                                  ; On                 ; On                 ;
; Report Source Assignments                                                  ; On                 ; On                 ;
; Report Connectivity Checks                                                 ; On                 ; On                 ;
; Ignore Maximum Fan-Out Assignments                                         ; Off                ; Off                ;
; Synchronization Register Chain Length                                      ; 2                  ; 2                  ;
; PowerPlay Power Optimization During Synthesis                              ; Normal compilation ; Normal compilation ;
; HDL message level                                                          ; Level2             ; Level2             ;
; Suppress Register Optimization Related Messages                            ; Off                ; Off                ;
; Number of Removed Registers Reported in Synthesis Report                   ; 5000               ; 5000               ;
; Number of Swept Nodes Reported in Synthesis Report                         ; 5000               ; 5000               ;
; Number of Inverted Registers Reported in Synthesis Report                  ; 100                ; 100                ;
; Clock MUX Protection                                                       ; On                 ; On                 ;
; Auto Gated Clock Conversion                                                ; Off                ; Off                ;
; Block Design Naming                                                        ; Auto               ; Auto               ;
; SDC constraint protection                                                  ; Off                ; Off                ;
; Synthesis Effort                                                           ; Auto               ; Auto               ;
; Shift Register Replacement - Allow Asynchronous Clear Signal               ; On                 ; On                 ;
; Pre-Mapping Resynthesis Optimization                                       ; Off                ; Off                ;
; Analysis & Synthesis Message Level                                         ; Medium             ; Medium             ;
; Disable Register Merging Across Hierarchies                                ; Auto               ; Auto               ;
; Resource Aware Inference For Block RAM                                     ; On                 ; On                 ;
; Synthesis Seed                                                             ; 1                  ; 1                  ;
+----------------------------------------------------------------------------+--------------------+--------------------+


+------------------------------------------+
; Parallel Compilation                     ;
+----------------------------+-------------+
; Processors                 ; Number      ;
+----------------------------+-------------+
; Number detected on machine ; 16          ;
; Maximum allowed            ; 16          ;
;                            ;             ;
; Average used               ; 1.00        ;
; Maximum used               ; 7           ;
;                            ;             ;
; Usage by Processor         ; % Time Used ;
;     Processor 1            ; 100.0%      ;
;     Processors 2-7         ; < 0.1%      ;
;     Processors 8-16        ;   0.0%      ;
+----------------------------+-------------+


+------------------------------------------------------------------------------------------------------------------------------------------------------------------------------------+
; Analysis & Synthesis Source Files Read                                                                                                                                             ;
+---------------------------------------------------+-----------------+-----------------+----------------------------------------------------------------------------------+---------+
; File Name with User-Entered Path                  ; Used in Netlist ; File Type       ; File Name with Absolute Path                                                     ; Library ;
+---------------------------------------------------+-----------------+-----------------+----------------------------------------------------------------------------------+---------+
; ../../Basiskomponenten/FF/DFlipFlop/DFlipFlop.vhd ; yes             ; User VHDL File  ; G:/workbench/Altera/projects/Uni_EDA/Basiskomponenten/FF/DFlipFlop/DFlipFlop.vhd ;         ;
; ../../Multiplexer/Multiplexer2x1.vhd              ; yes             ; User VHDL File  ; G:/workbench/Altera/projects/Uni_EDA/Multiplexer/Multiplexer2x1.vhd              ;         ;
; ../../Multiplexer/Multiplexer4x1.vhd              ; yes             ; User VHDL File  ; G:/workbench/Altera/projects/Uni_EDA/Multiplexer/Multiplexer4x1.vhd              ;         ;
; ../../RegisterU4/RegisterU4.vhd                   ; yes             ; User VHDL File  ; G:/workbench/Altera/projects/Uni_EDA/RegisterU4/RegisterU4.vhd                   ;         ;
; ../../Counter/Counter.vhd                         ; yes             ; User VHDL File  ; G:/workbench/Altera/projects/Uni_EDA/Counter/Counter.vhd                         ;         ;
; Multiplikator.vhd                                 ; yes             ; User VHDL File  ; G:/workbench/Altera/projects/Uni_EDA/Arithmetik/Multiplikator/Multiplikator.vhd  ;         ;
+---------------------------------------------------+-----------------+-----------------+----------------------------------------------------------------------------------+---------+


+--------------------------------------------------------------------+
; Analysis & Synthesis Resource Usage Summary                        ;
+---------------------------------------------+----------------------+
; Resource                                    ; Usage                ;
+---------------------------------------------+----------------------+
; Estimated Total logic elements              ; 57                   ;
;                                             ;                      ;
; Total combinational functions               ; 55                   ;
; Logic element usage by number of LUT inputs ;                      ;
;     -- 4 input functions                    ; 9                    ;
;     -- 3 input functions                    ; 31                   ;
;     -- <=2 input functions                  ; 15                   ;
;                                             ;                      ;
; Logic elements by mode                      ;                      ;
;     -- normal mode                          ; 49                   ;
;     -- arithmetic mode                      ; 6                    ;
;                                             ;                      ;
; Total registers                             ; 7                    ;
;     -- Dedicated logic registers            ; 7                    ;
;     -- I/O registers                        ; 0                    ;
;                                             ;                      ;
; I/O pins                                    ; 23                   ;
;                                             ;                      ;
; Embedded Multiplier 9-bit elements          ; 0                    ;
;                                             ;                      ;
; Maximum fan-out node                        ; s_state_current.Calc ;
; Maximum fan-out                             ; 14                   ;
; Total fan-out                               ; 217                  ;
; Average fan-out                             ; 2.01                 ;
+---------------------------------------------+----------------------+


+------------------------------------------------------------------------------------------------------------------------------------------------------------------------------------+
; Analysis & Synthesis Resource Utilization by Entity                                                                                                                                ;
+----------------------------+-------------------+--------------+-------------+--------------+---------+-----------+------+--------------+----------------------------+--------------+
; Compilation Hierarchy Node ; LC Combinationals ; LC Registers ; Memory Bits ; DSP Elements ; DSP 9x9 ; DSP 18x18 ; Pins ; Virtual Pins ; Full Hierarchy Name        ; Library Name ;
+----------------------------+-------------------+--------------+-------------+--------------+---------+-----------+------+--------------+----------------------------+--------------+
; |Multiplikator             ; 55 (52)           ; 7 (4)        ; 0           ; 0            ; 0       ; 0         ; 23   ; 0            ; |Multiplikator             ; work         ;
;    |Counter:CNT|           ; 3 (3)             ; 3 (3)        ; 0           ; 0            ; 0       ; 0         ; 0    ; 0            ; |Multiplikator|Counter:CNT ; work         ;
+----------------------------+-------------------+--------------+-------------+--------------+---------+-----------+------+--------------+----------------------------+--------------+
Note: For table entries with two numbers listed, the numbers in parentheses indicate the number of resources of the given type used by the specific entity alone. The numbers listed outside of parentheses indicate the total resources of the given type used by the specific entity and all of its sub-entities in the hierarchy.


Encoding Type:  One-Hot
+---------------------------------------------------------------------------------------------------------------------------------------------+
; State Machine - |Multiplikator|s_state_current                                                                                              ;
+------------------------+------------------------+----------------------+----------------------+----------------------+----------------------+
; Name                   ; s_state_current.Output ; s_state_current.Step ; s_state_current.Calc ; s_state_current.Load ; s_state_current.Init ;
+------------------------+------------------------+----------------------+----------------------+----------------------+----------------------+
; s_state_current.Init   ; 0                      ; 0                    ; 0                    ; 0                    ; 0                    ;
; s_state_current.Load   ; 0                      ; 0                    ; 0                    ; 1                    ; 1                    ;
; s_state_current.Calc   ; 0                      ; 0                    ; 1                    ; 0                    ; 1                    ;
; s_state_current.Step   ; 0                      ; 1                    ; 0                    ; 0                    ; 1                    ;
; s_state_current.Output ; 1                      ; 0                    ; 0                    ; 0                    ; 1                    ;
+------------------------+------------------------+----------------------+----------------------+----------------------+----------------------+


+-------------------------------------------------------------------------------------------------------+
; User-Specified and Inferred Latches                                                                   ;
+-----------------------------------------------------+------------------------+------------------------+
; Latch Name                                          ; Latch Enable Signal    ; Free of Timing Hazards ;
+-----------------------------------------------------+------------------------+------------------------+
; \AUSGANG:A[1]                                       ; State                  ; yes                    ;
; \AUSGANG:A[2]                                       ; State                  ; yes                    ;
; \AUSGANG:A[3]                                       ; State                  ; yes                    ;
; \AUSGANG:A[4]                                       ; State                  ; yes                    ;
; \AUSGANG:A[5]                                       ; State                  ; yes                    ;
; \AUSGANG:A[6]                                       ; State                  ; yes                    ;
; \AUSGANG:A[7]                                       ; State                  ; yes                    ;
; \AUSGANG:A[8]                                       ; Selector13             ; yes                    ;
; \AUSGANG:M[5]                                       ; s_state_current.Init   ; yes                    ;
; \AUSGANG:A[0]                                       ; State                  ; yes                    ;
; \AUSGANG:M[6]                                       ; s_state_current.Init   ; yes                    ;
; \AUSGANG:M[7]                                       ; s_state_current.Init   ; yes                    ;
; \AUSGANG:M[8]                                       ; s_state_current.Init   ; yes                    ;
; s_count                                             ; s_state_current.Output ; yes                    ;
; Number of user-specified and inferred latches = 14  ;                        ;                        ;
+-----------------------------------------------------+------------------------+------------------------+
Note: All latches listed above may not be present at the end of synthesis due to various synthesis optimizations.


+--------------------------------------------------------------------------------+
; Registers Removed During Synthesis                                             ;
+---------------------------------------+----------------------------------------+
; Register name                         ; Reason for Removal                     ;
+---------------------------------------+----------------------------------------+
; s_state_current.Load                  ; Stuck at GND due to stuck port data_in ;
; Total Number of Removed Registers = 1 ;                                        ;
+---------------------------------------+----------------------------------------+


+------------------------------------------------------+
; General Register Statistics                          ;
+----------------------------------------------+-------+
; Statistic                                    ; Value ;
+----------------------------------------------+-------+
; Total registers                              ; 7     ;
; Number of registers using Synchronous Clear  ; 0     ;
; Number of registers using Synchronous Load   ; 0     ;
; Number of registers using Asynchronous Clear ; 7     ;
; Number of registers using Asynchronous Load  ; 0     ;
; Number of registers using Clock Enable       ; 3     ;
; Number of registers using Preset             ; 0     ;
+----------------------------------------------+-------+


+------------------------------------------------------------------------------------------------------------------------------------------+
; Multiplexer Restructuring Statistics (Restructuring Performed)                                                                           ;
+--------------------+-----------+---------------+----------------------+------------------------+------------+----------------------------+
; Multiplexer Inputs ; Bus Width ; Baseline Area ; Area if Restructured ; Saving if Restructured ; Registered ; Example Multiplexer Output ;
+--------------------+-----------+---------------+----------------------+------------------------+------------+----------------------------+
; 3:1                ; 2 bits    ; 4 LEs         ; 4 LEs                ; 0 LEs                  ; No         ; |Multiplikator|State       ;
; 4:1                ; 3 bits    ; 6 LEs         ; 6 LEs                ; 0 LEs                  ; No         ; |Multiplikator|Mux2        ;
+--------------------+-----------+---------------+----------------------+------------------------+------------+----------------------------+


+-------------------------------------------------------------------------------+
; Parameter Settings for User Entity Instance: Top-level Entity: |Multiplikator ;
+----------------+-------+------------------------------------------------------+
; Parameter Name ; Value ; Type                                                 ;
+----------------+-------+------------------------------------------------------+
; Bitsize        ; 4     ; Signed Integer                                       ;
+----------------+-------+------------------------------------------------------+
Note: In order to hide this table in the UI and the text report file, please set the "Show Parameter Settings in Synthesis Report" option in "Analysis and Synthesis Settings -> More Settings" to "Off".


+----------------------------------------------------------+
; Parameter Settings for User Entity Instance: Counter:CNT ;
+----------------+-------+---------------------------------+
; Parameter Name ; Value ; Type                            ;
+----------------+-------+---------------------------------+
; limit          ; 4     ; Signed Integer                  ;
+----------------+-------+---------------------------------+
Note: In order to hide this table in the UI and the text report file, please set the "Show Parameter Settings in Synthesis Report" option in "Analysis and Synthesis Settings -> More Settings" to "Off".


+---------------------------------------------------------------+
; Parameter Settings for User Entity Instance: RegisterU4:REG_A ;
+----------------+-------+--------------------------------------+
; Parameter Name ; Value ; Type                                 ;
+----------------+-------+--------------------------------------+
; bitsize        ; 9     ; Signed Integer                       ;
+----------------+-------+--------------------------------------+
Note: In order to hide this table in the UI and the text report file, please set the "Show Parameter Settings in Synthesis Report" option in "Analysis and Synthesis Settings -> More Settings" to "Off".


+----------------------------------------------------------------------------------------------------------------+
; Port Connectivity Checks: "RegisterU4:REG_A|DFlipFlop:\REG_GEN:9:FF"                                           ;
+------+--------+----------+-------------------------------------------------------------------------------------+
; Port ; Type   ; Severity ; Details                                                                             ;
+------+--------+----------+-------------------------------------------------------------------------------------+
; en   ; Input  ; Info     ; Stuck at VCC                                                                        ;
; nq   ; Output ; Info     ; Connected to dangling logic. Logic that only feeds a dangling port will be removed. ;
+------+--------+----------+-------------------------------------------------------------------------------------+


+----------------------------------------------------------------------------------------------------------------+
; Port Connectivity Checks: "RegisterU4:REG_A|DFlipFlop:\REG_GEN:8:FF"                                           ;
+------+--------+----------+-------------------------------------------------------------------------------------+
; Port ; Type   ; Severity ; Details                                                                             ;
+------+--------+----------+-------------------------------------------------------------------------------------+
; en   ; Input  ; Info     ; Stuck at VCC                                                                        ;
; nq   ; Output ; Info     ; Connected to dangling logic. Logic that only feeds a dangling port will be removed. ;
+------+--------+----------+-------------------------------------------------------------------------------------+


+----------------------------------------------------------------------------------------------------------------+
; Port Connectivity Checks: "RegisterU4:REG_A|DFlipFlop:\REG_GEN:7:FF"                                           ;
+------+--------+----------+-------------------------------------------------------------------------------------+
; Port ; Type   ; Severity ; Details                                                                             ;
+------+--------+----------+-------------------------------------------------------------------------------------+
; en   ; Input  ; Info     ; Stuck at VCC                                                                        ;
; nq   ; Output ; Info     ; Connected to dangling logic. Logic that only feeds a dangling port will be removed. ;
+------+--------+----------+-------------------------------------------------------------------------------------+


+----------------------------------------------------------------------------------------------------------------+
; Port Connectivity Checks: "RegisterU4:REG_A|DFlipFlop:\REG_GEN:6:FF"                                           ;
+------+--------+----------+-------------------------------------------------------------------------------------+
; Port ; Type   ; Severity ; Details                                                                             ;
+------+--------+----------+-------------------------------------------------------------------------------------+
; en   ; Input  ; Info     ; Stuck at VCC                                                                        ;
; nq   ; Output ; Info     ; Connected to dangling logic. Logic that only feeds a dangling port will be removed. ;
+------+--------+----------+-------------------------------------------------------------------------------------+


+----------------------------------------------------------------------------------------------------------------+
; Port Connectivity Checks: "RegisterU4:REG_A|DFlipFlop:\REG_GEN:5:FF"                                           ;
+------+--------+----------+-------------------------------------------------------------------------------------+
; Port ; Type   ; Severity ; Details                                                                             ;
+------+--------+----------+-------------------------------------------------------------------------------------+
; en   ; Input  ; Info     ; Stuck at VCC                                                                        ;
; nq   ; Output ; Info     ; Connected to dangling logic. Logic that only feeds a dangling port will be removed. ;
+------+--------+----------+-------------------------------------------------------------------------------------+


+----------------------------------------------------------------------------------------------------------------+
; Port Connectivity Checks: "RegisterU4:REG_A|DFlipFlop:\REG_GEN:4:FF"                                           ;
+------+--------+----------+-------------------------------------------------------------------------------------+
; Port ; Type   ; Severity ; Details                                                                             ;
+------+--------+----------+-------------------------------------------------------------------------------------+
; en   ; Input  ; Info     ; Stuck at VCC                                                                        ;
; nq   ; Output ; Info     ; Connected to dangling logic. Logic that only feeds a dangling port will be removed. ;
+------+--------+----------+-------------------------------------------------------------------------------------+


+----------------------------------------------------------------------------------------------------------------+
; Port Connectivity Checks: "RegisterU4:REG_A|DFlipFlop:\REG_GEN:3:FF"                                           ;
+------+--------+----------+-------------------------------------------------------------------------------------+
; Port ; Type   ; Severity ; Details                                                                             ;
+------+--------+----------+-------------------------------------------------------------------------------------+
; en   ; Input  ; Info     ; Stuck at VCC                                                                        ;
; nq   ; Output ; Info     ; Connected to dangling logic. Logic that only feeds a dangling port will be removed. ;
+------+--------+----------+-------------------------------------------------------------------------------------+


+----------------------------------------------------------------------------------------------------------------+
; Port Connectivity Checks: "RegisterU4:REG_A|DFlipFlop:\REG_GEN:2:FF"                                           ;
+------+--------+----------+-------------------------------------------------------------------------------------+
; Port ; Type   ; Severity ; Details                                                                             ;
+------+--------+----------+-------------------------------------------------------------------------------------+
; en   ; Input  ; Info     ; Stuck at VCC                                                                        ;
; nq   ; Output ; Info     ; Connected to dangling logic. Logic that only feeds a dangling port will be removed. ;
+------+--------+----------+-------------------------------------------------------------------------------------+


+----------------------------------------------------------------------------------------------------------------+
; Port Connectivity Checks: "RegisterU4:REG_A|DFlipFlop:\REG_GEN:1:FF"                                           ;
+------+--------+----------+-------------------------------------------------------------------------------------+
; Port ; Type   ; Severity ; Details                                                                             ;
+------+--------+----------+-------------------------------------------------------------------------------------+
; en   ; Input  ; Info     ; Stuck at VCC                                                                        ;
; nq   ; Output ; Info     ; Connected to dangling logic. Logic that only feeds a dangling port will be removed. ;
+------+--------+----------+-------------------------------------------------------------------------------------+


+----------------------------------------------------------------------------------------------------------------+
; Port Connectivity Checks: "RegisterU4:REG_A"                                                                   ;
+------+--------+----------+-------------------------------------------------------------------------------------+
; Port ; Type   ; Severity ; Details                                                                             ;
+------+--------+----------+-------------------------------------------------------------------------------------+
; rst  ; Input  ; Info     ; Stuck at GND                                                                        ;
; shl  ; Input  ; Info     ; Stuck at GND                                                                        ;
; shr  ; Input  ; Info     ; Stuck at GND                                                                        ;
; s    ; Input  ; Info     ; Stuck at GND                                                                        ;
; d    ; Input  ; Info     ; Stuck at GND                                                                        ;
; q    ; Output ; Info     ; Connected to dangling logic. Logic that only feeds a dangling port will be removed. ;
+------+--------+----------+-------------------------------------------------------------------------------------+


+-----------------------------------------------------------------------------------------------------------------+
; Port Connectivity Checks: "Counter:CNT"                                                                         ;
+-------+--------+----------+-------------------------------------------------------------------------------------+
; Port  ; Type   ; Severity ; Details                                                                             ;
+-------+--------+----------+-------------------------------------------------------------------------------------+
; start ; Input  ; Info     ; Stuck at GND                                                                        ;
; ov    ; Output ; Info     ; Connected to dangling logic. Logic that only feeds a dangling port will be removed. ;
+-------+--------+----------+-------------------------------------------------------------------------------------+


+-----------------------------------------------------+
; Post-Synthesis Netlist Statistics for Top Partition ;
+-----------------------+-----------------------------+
; Type                  ; Count                       ;
+-----------------------+-----------------------------+
; boundary_port         ; 23                          ;
; cycloneiii_ff         ; 7                           ;
;     CLR               ; 4                           ;
;     ENA CLR           ; 3                           ;
; cycloneiii_lcell_comb ; 55                          ;
;     arith             ; 6                           ;
;         3 data inputs ; 6                           ;
;     normal            ; 49                          ;
;         2 data inputs ; 15                          ;
;         3 data inputs ; 25                          ;
;         4 data inputs ; 9                           ;
;                       ;                             ;
; Max LUT depth         ; 4.30                        ;
; Average LUT depth     ; 2.44                        ;
+-----------------------+-----------------------------+


+-------------------------------+
; Elapsed Time Per Partition    ;
+----------------+--------------+
; Partition Name ; Elapsed Time ;
+----------------+--------------+
; Top            ; 00:00:00     ;
+----------------+--------------+


+-------------------------------+
; Analysis & Synthesis Messages ;
+-------------------------------+
Info: *******************************************************************
Info: Running Quartus II 64-Bit Analysis & Synthesis
    Info: Version 14.1.0 Build 186 12/03/2014 SJ Web Edition
    Info: Processing started: Mon Jul 16 14:59:06 2018
Info: Command: quartus_map --read_settings_files=on --write_settings_files=off Multiplikator -c Multiplikator
Info (20030): Parallel compilation is enabled and will use 16 of the 16 processors detected
Info (12021): Found 2 design units, including 1 entities, in source file /workbench/altera/projects/uni_eda/basiskomponenten/ff/dflipflop/dflipflop.vhd
    Info (12022): Found design unit 1: DFlipFlop-Behaviour
    Info (12023): Found entity 1: DFlipFlop
Info (12021): Found 2 design units, including 1 entities, in source file /workbench/altera/projects/uni_eda/multiplexer/multiplexer2x1.vhd
    Info (12022): Found design unit 1: MUltiplexer2x1-Behaviour
    Info (12023): Found entity 1: Multiplexer2x1
Info (12021): Found 2 design units, including 1 entities, in source file /workbench/altera/projects/uni_eda/multiplexer/multiplexer4x1.vhd
    Info (12022): Found design unit 1: Multiplexer4x1-Behaviour
    Info (12023): Found entity 1: Multiplexer4x1
Info (12021): Found 2 design units, including 1 entities, in source file /workbench/altera/projects/uni_eda/registeru4/registeru4.vhd
    Info (12022): Found design unit 1: RegisterU4-Behaviour
    Info (12023): Found entity 1: RegisterU4
Info (12021): Found 2 design units, including 1 entities, in source file /workbench/altera/projects/uni_eda/counter/counter.vhd
    Info (12022): Found design unit 1: Counter-Behaviour
    Info (12023): Found entity 1: Counter
Info (12021): Found 2 design units, including 1 entities, in source file /workbench/altera/projects/uni_eda/arithmetik/genericvas/volladdierer.vhd
    Info (12022): Found design unit 1: Volladdierer-Behaviour
    Info (12023): Found entity 1: Volladdierer
Info (12021): Found 2 design units, including 1 entities, in source file /workbench/altera/projects/uni_eda/arithmetik/genericvas/genericvas.vhd
    Info (12022): Found design unit 1: GenericVAS-Behaviour
    Info (12023): Found entity 1: GenericVAS
Info (12021): Found 2 design units, including 1 entities, in source file multiplikator.vhd
    Info (12022): Found design unit 1: Multiplikator-Behaviour
    Info (12023): Found entity 1: Multiplikator
Info (12021): Found 2 design units, including 1 entities, in source file tb_multiplikator.vhd
    Info (12022): Found design unit 1: tb_Multiplikator-Testbench
    Info (12023): Found entity 1: tb_Multiplikator
Info (12127): Elaborating entity "Multiplikator" for the top level hierarchy
Warning (10036): Verilog HDL or VHDL warning at Multiplikator.vhd(52): object "s_ov" assigned a value but never read
Warning (10540): VHDL Signal Declaration warning at Multiplikator.vhd(53): used explicit default value for signal "s_start" because signal was never assigned a value
Warning (10540): VHDL Signal Declaration warning at Multiplikator.vhd(56): used explicit default value for signal "s_rst" because signal was never assigned a value
Warning (10540): VHDL Signal Declaration warning at Multiplikator.vhd(56): used explicit default value for signal "s_shl" because signal was never assigned a value
Warning (10540): VHDL Signal Declaration warning at Multiplikator.vhd(56): used explicit default value for signal "s_shr" because signal was never assigned a value
Warning (10540): VHDL Signal Declaration warning at Multiplikator.vhd(57): used explicit default value for signal "s_sel" because signal was never assigned a value
Warning (10540): VHDL Signal Declaration warning at Multiplikator.vhd(58): used explicit default value for signal "s_rd" because signal was never assigned a value
Warning (10036): Verilog HDL or VHDL warning at Multiplikator.vhd(58): object "s_rq" assigned a value but never read
Warning (10631): VHDL Process Statement warning at Multiplikator.vhd(87): inferring latch(es) for signal or variable "s_count", which holds its previous value in one or more paths through the process
Warning (10631): VHDL Process Statement warning at Multiplikator.vhd(108): inferring latch(es) for signal or variable "A", which holds its previous value in one or more paths through the process
Warning (10631): VHDL Process Statement warning at Multiplikator.vhd(108): inferring latch(es) for signal or variable "M", which holds its previous value in one or more paths through the process
Warning (10492): VHDL Process Statement warning at Multiplikator.vhd(146): signal "s_state_current" is read inside the Process Statement but isn't in the Process Statement's sensitivity list
Warning (10492): VHDL Process Statement warning at Multiplikator.vhd(149): signal "s_state_current" is read inside the Process Statement but isn't in the Process Statement's sensitivity list
Info (10041): Inferred latch for "AUSGANG:M[0]" at Multiplikator.vhd(108)
Info (10041): Inferred latch for "AUSGANG:M[1]" at Multiplikator.vhd(108)
Info (10041): Inferred latch for "AUSGANG:M[2]" at Multiplikator.vhd(108)
Info (10041): Inferred latch for "AUSGANG:M[3]" at Multiplikator.vhd(108)
Info (10041): Inferred latch for "AUSGANG:M[4]" at Multiplikator.vhd(108)
Info (10041): Inferred latch for "AUSGANG:M[5]" at Multiplikator.vhd(108)
Info (10041): Inferred latch for "AUSGANG:M[6]" at Multiplikator.vhd(108)
Info (10041): Inferred latch for "AUSGANG:M[7]" at Multiplikator.vhd(108)
Info (10041): Inferred latch for "AUSGANG:M[8]" at Multiplikator.vhd(108)
Info (10041): Inferred latch for "AUSGANG:A[0]" at Multiplikator.vhd(108)
Info (10041): Inferred latch for "AUSGANG:A[1]" at Multiplikator.vhd(108)
Info (10041): Inferred latch for "AUSGANG:A[2]" at Multiplikator.vhd(108)
Info (10041): Inferred latch for "AUSGANG:A[3]" at Multiplikator.vhd(108)
Info (10041): Inferred latch for "AUSGANG:A[4]" at Multiplikator.vhd(108)
Info (10041): Inferred latch for "AUSGANG:A[5]" at Multiplikator.vhd(108)
Info (10041): Inferred latch for "AUSGANG:A[6]" at Multiplikator.vhd(108)
Info (10041): Inferred latch for "AUSGANG:A[7]" at Multiplikator.vhd(108)
Info (10041): Inferred latch for "AUSGANG:A[8]" at Multiplikator.vhd(108)
Info (10041): Inferred latch for "s_count" at Multiplikator.vhd(87)
Info (12128): Elaborating entity "Counter" for hierarchy "Counter:CNT"
Info (12128): Elaborating entity "RegisterU4" for hierarchy "RegisterU4:REG_A"
Info (12128): Elaborating entity "Multiplexer4x1" for hierarchy "RegisterU4:REG_A|Multiplexer4x1:\REG_GEN:1:MUX"
Info (12128): Elaborating entity "Multiplexer2x1" for hierarchy "RegisterU4:REG_A|Multiplexer4x1:\REG_GEN:1:MUX|Multiplexer2x1:M0"
Info (12128): Elaborating entity "DFlipFlop" for hierarchy "RegisterU4:REG_A|DFlipFlop:\REG_GEN:1:FF"
Warning (10631): VHDL Process Statement warning at DFlipFlop.vhd(17): inferring latch(es) for signal or variable "s_q", which holds its previous value in one or more paths through the process
Info (10041): Inferred latch for "s_q" at DFlipFlop.vhd(17)
Warning (13012): Latch \AUSGANG:A[1] has unsafe behavior
    Warning (13013): Ports D and ENA on the latch are fed by the same signal s_state_current.Calc
Warning (13012): Latch \AUSGANG:A[2] has unsafe behavior
    Warning (13013): Ports D and ENA on the latch are fed by the same signal s_state_current.Calc
Warning (13012): Latch \AUSGANG:A[3] has unsafe behavior
    Warning (13013): Ports D and ENA on the latch are fed by the same signal s_state_current.Calc
Warning (13012): Latch \AUSGANG:A[4] has unsafe behavior
    Warning (13013): Ports D and ENA on the latch are fed by the same signal s_state_current.Calc
Warning (13012): Latch \AUSGANG:A[5] has unsafe behavior
    Warning (13013): Ports D and ENA on the latch are fed by the same signal s_state_current.Calc
Warning (13012): Latch \AUSGANG:A[6] has unsafe behavior
    Warning (13013): Ports D and ENA on the latch are fed by the same signal s_state_current.Calc
Warning (13012): Latch \AUSGANG:A[7] has unsafe behavior
    Warning (13013): Ports D and ENA on the latch are fed by the same signal s_state_current.Calc
Warning (13012): Latch \AUSGANG:A[8] has unsafe behavior
    Warning (13013): Ports D and ENA on the latch are fed by the same signal s_state_current.Calc
Warning (13012): Latch \AUSGANG:A[0] has unsafe behavior
    Warning (13013): Ports D and ENA on the latch are fed by the same signal s_state_current.Calc
Info (286030): Timing-Driven Synthesis is running
Info (16010): Generating hard_block partition "hard_block:auto_generated_inst"
    Info (16011): Adding 0 node(s), including 0 DDIO, 0 PLL, 0 transceiver and 0 LCELL
Info (21057): Implemented 80 device resources after synthesis - the final resource count might be different
    Info (21058): Implemented 11 input pins
    Info (21059): Implemented 12 output pins
    Info (21061): Implemented 57 logic cells
Info: Quartus II 64-Bit Analysis & Synthesis was successful. 0 errors, 32 warnings
    Info: Peak virtual memory: 4903 megabytes
    Info: Processing ended: Mon Jul 16 14:59:18 2018
    Info: Elapsed time: 00:00:12
    Info: Total CPU time (on all processors): 00:00:28


