Info: Start Nativelink Simulation process
Info: NativeLink has detected VHDL design -- VHDL simulation models will be used

========= EDA Simulation Settings =====================

Sim Mode              :  RTL
Family                :  cycloneive
Quartus root          :  g:/altera/14.1/quartus/bin64/
Quartus sim root      :  g:/altera/14.1/quartus/eda/sim_lib
Simulation Tool       :  modelsim-altera
Simulation Language   :  vhdl
Version               :  93
Simulation Mode       :  GUI
Sim Output File       :  
Sim SDF file          :  
Sim dir               :  simulation\modelsim

=======================================================

Info: Starting NativeLink simulation with ModelSim-Altera software
Sourced NativeLink script g:/altera/14.1/quartus/common/tcl/internal/nativelink/modelsim.tcl
Warning: File Multiplikator_run_msim_rtl_vhdl.do already exists - backing up current file as Multiplikator_run_msim_rtl_vhdl.do.bak6
Info: Spawning ModelSim-Altera Simulation software 
